Assignment 5 - DESeq2
…
3. Annotating results to construct a labeled volcano plot

Using the results generated by DESeq2, convert it to a
tibble and add one additional column that denotes whether a
gene is either: 1. Upregulated and significant at a given padj
threshold, 2.Downregulated and significant at a given padj threshold, or
3. Not significant at a given padj threshold. Name this column
volc_plot_status. Ensure the values for these labels are
UP, DOWN, and NS, respectively. Have your function take the
DESeq2 results as well as a user-defined threshold for padj and set it
at .10.

## # A tibble: 19,407 × 8
##    genes  baseMean log2FoldChange lfcSE   stat  pvalue     padj volc_plot_status
##    <chr>     <dbl>          <dbl> <dbl>  <dbl>   <dbl>    <dbl> <chr>           
##  1 ENSMU…    12.5          -1.35  0.908 -1.49  1.37e-1  2.63e-1 NS              
##  2 ENSMU…     4.74         -0.395 1.39  -0.285 7.76e-1  8.73e-1 NS              
##  3 ENSMU…    22.4           3.83  0.834  4.60  4.29e-6  2.76e-5 UP              
##  4 ENSMU…   174.            0.247 0.292  0.846 3.98e-1  5.73e-1 NS              
##  5 ENSMU…     2.56          1.13  2.10   0.541 5.88e-1 NA       NS              
##  6 ENSMU…     7.87         -0.577 1.16  -0.499 6.18e-1  7.63e-1 NS              
##  7 ENSMU…     2.71          0.282 1.87   0.151 8.80e-1 NA       NS              
##  8 ENSMU…    20.4           0.749 0.717  1.04  2.96e-1  4.67e-1 NS              
##  9 ENSMU…  1915.            0.789 0.154  5.13  2.97e-7  2.27e-6 UP              
## 10 ENSMU…    31.4          -0.982 0.575 -1.71  8.80e-2  1.87e-1 NS              
## # ℹ 19,397 more rows
…
#use tail to display the bottom of the list
tail(rnk_list)

##       Cpa1      Bmp10      Troap    Or51af1      Tnni1       Dlk1 
##  -8.792430  -9.224007  -9.245540  -9.386462  -9.852925 -10.269311

Perform a GSEA using a ranked list log2FoldChange values for all
genes discovered in the DESeq2 results against the C2 Canonical Pathways
gene set collection. As recommended, please set the minSize and maxSize
parameters to 15 and 500, respectively. Before running fgsea, you will
have to load the GMT pathways file in an appropriate format for
fgsea. Otherwise, run fgsea using default parameters and
the fgsea() function.

## # A tibble: 921 × 8
##    pathway                  pval     padj log2err     ES   NES  size leadingEdge
##    <chr>                   <dbl>    <dbl>   <dbl>  <dbl> <dbl> <int> <list>     
##  1 REACTOME_CELL_CYCLE… 5.51e-20 5.07e-17   1.15  -0.606 -2.33   259 <chr [67]> 
##  2 REACTOME_THE_CITRIC… 1.18e-17 5.45e-15   1.09   0.629  2.57   161 <chr [134]>
##  3 REACTOME_MITOTIC_SP… 2.24e-17 6.89e-15   1.08  -0.725 -2.54   107 <chr [32]> 
##  4 REACTOME_AMPLIFICAT… 8.69e-17 2.00e-14   1.06  -0.744 -2.57    90 <chr [31]> 
##  5 REACTOME_RESOLUTION… 2.49e-15 4.60e-13   1.01  -0.691 -2.46   116 <chr [36]> 
##  6 REACTOME_MITOTIC_PR… 5.83e-15 8.96e-13   0.997 -0.613 -2.29   187 <chr [45]> 
##  7 REACTOME_MITOTIC_ME… 1.13e-14 1.49e-12   0.987 -0.581 -2.21   218 <chr [41]> 
##  8 REACTOME_RESPIRATOR… 1.94e-14 2.24e-12   0.976  0.687  2.59    95 <chr [87]> 
##  9 REACTOME_RESPIRATOR… 8.29e-14 8.49e-12   0.955  0.643  2.53   117 <chr [102]>
## 10 REACTOME_COMPLEX_I_… 6.84e-13 6.30e-11   0.921  0.762  2.63    56 <chr [50]> 
## # ℹ 911 more rows
…
